{"data":{"data":[{"id":99,"slug":"gemini-25-pro-industria-academia","title":"Gemini 2.5 Pro: Horizontes Convergentes","excerpt":"La brecha entre investigación académica y aplicación industrial en inteligencia artificial se está cerrando rápidamente. Gemini 2.5 Pro, el modelo de Google, ejemplifica esta convergencia al integrar razonamiento avanzado, procesamiento multimodal y generación autónoma de código.","content":"<p>La brecha entre investigación académica y aplicación industrial en inteligencia artificial se está cerrando rápidamente. <strong>Gemini 2.5 Pro</strong>, el <a href=\"https://deepmind.google/models/gemini/pro/\">modelo de Google</a>, ejemplifica esta convergencia al integrar razonamiento avanzado, procesamiento multimodal y generación autónoma de código.</p>\n\n\n\n<div><figure><img decoding=\"async\" src=\"https://imagedelivery.net/LUW2n1KCu7npWm7i7NCWng/04d5f320-705e-4a36-bcd8-cdd88434d200/public\" alt=\"Sectores estratégicos de IA en Chile con Gemini 2.5 Pro\" class=\"uag-image-5330\" width=\"1024\" height=\"683\" title=\"Sectores estratégicos IA Chile con Gemini 2.5 Pro\" loading=\"lazy\" role=\"img\" /></figure></div>\n\n\n\n<p><strong>Por consiguiente</strong>, su impacto va más allá de la innovación tecnológica: abre interrogantes sobre cómo economías emergentes, como Chile, pueden posicionarse en este nuevo ecosistema.</p>\n\n\n\n<hr />\n\n\n\n<h2>El panorama global de Gemini 2.5 Pro</h2>\n\n\n\n<p>El desarrollo de <strong>Gemini 2.5 Pro</strong> refleja la aceleración sin precedentes de la inteligencia artificial. Según el <em>Stanford AI Index 2023</em>, la inversión global en IA superó los <strong>$120 mil millones</strong> en 2022.</p>\n\n\n\n<p><strong>Además</strong>, la democratización del acceso a estos modelos genera oportunidades para países emergentes. Como señala François Chollet de Google: “la eficiencia en el uso de recursos es más crucial que la escala de cómputo”.</p>\n\n\n\n<p>En Chile, esta visión refuerza el valor de la <strong>formación en IA aplicada</strong>, que impulsa <a href=\"https://jhedai.com/empresa-inteligencia-artificial-chile/\">JhedAI</a>.</p>\n\n\n\n<hr />\n\n\n\n<h2>Academia e industria en la era de Gemini 2.5 Pro</h2>\n\n\n\n<p>La <strong>adopción de Gemini 2.5 Pro</strong> refleja cómo corporaciones como Google DeepMind, OpenAI y Microsoft Research lideran la investigación fundamental, integrándola directamente a la industria.</p>\n\n\n\n<p><strong>En particular</strong>, esto desafía a las universidades tradicionales, que deben competir por talento, pero también abre espacios de colaboración en ética, sesgos y aplicaciones sociales.</p>\n\n\n\n<p>En Chile, estas sinergias pueden reforzarse mediante programas de <a href=\"https://jhedai.com/consultoria-inteligencia-artificial-chile/\">colaboración academia-industria</a>.</p>\n\n\n\n<hr />\n\n\n\n<h2>El contexto latinoamericano: datos y desafíos</h2>\n\n\n\n<p>Según el <strong>Índice Latinoamericano de IA (ILIA) 2024</strong>, Chile lidera la región con <strong>76,85/100</strong> puntos en investigación y publicaciones científicas.</p>\n\n\n\n<p><strong>Sin embargo</strong>, enfrenta desafíos:</p>\n\n\n\n<ul>\n<li>Inversión en I+D menor al 0,5% del PIB.</li>\n\n\n\n<li>Limitada infraestructura HPC.</li>\n\n\n\n<li>Escasez de talento especializado.</li>\n</ul>\n\n\n\n<p><strong>Como resultado</strong>, es crucial que Chile combine su capacidad académica con ecosistemas que impulsen innovación práctica.</p>\n\n\n\n<div><figure><img decoding=\"async\" src=\"https://imagedelivery.net/LUW2n1KCu7npWm7i7NCWng/946064c0-0e83-4bfb-b4d0-e332e47b6c00/public\" alt=\"Ecosistema de inteligencia artificial Chile ILIA 2024\" class=\"uag-image-5332\" width=\"1024\" height=\"683\" title=\"Ecosistema IA Chile ILIA 2024\" loading=\"lazy\" role=\"img\" /></figure></div>\n\n\n\n<hr />\n\n\n\n<h2>Gemini 2.5 Pro y sectores estratégicos para Chile</h2>\n\n\n\n<p>La <strong>adopción de Gemini 2.5 Pro en Chile</strong> puede potenciar sectores donde ya existen ventajas comparativas:</p>\n\n\n\n<ul>\n<li><strong>Astronomía computacional:</strong> análisis de datos astronómicos.</li>\n\n\n\n<li><strong>Minería inteligente:</strong> optimización de procesos y reducción de impacto ambiental.</li>\n\n\n\n<li><strong>Energías renovables:</strong> gestión predictiva de consumo y almacenamiento solar.</li>\n\n\n\n<li><strong>Agroindustria de precisión:</strong> detección temprana de plagas y gestión hídrica.</li>\n</ul>\n\n\n\n<p>Estas áreas se conectan directamente con las <a href=\"https://jhedai.com/category/blog-inteligencia-artificial-chile/\">capacitaciones en IA de JhedAI</a>.</p>\n\n\n\n<div><figure><img decoding=\"async\" src=\"https://imagedelivery.net/LUW2n1KCu7npWm7i7NCWng/110c95d3-082e-4199-18d8-ee4c8e7fec00/public\" alt=\"Sectores estratégicos de IA en Chile con Gemini 2.5 Pro\" class=\"uag-image-5333\" width=\"1024\" height=\"683\" title=\"Sectores estratégicos IA Chile con Gemini 2.5 Pro\" loading=\"lazy\" role=\"img\" /></figure></div>\n\n\n\n<hr />\n\n\n\n<h2>El desafío del talento especializado</h2>\n\n\n\n<p>El <strong>ILIA 2024</strong> muestra que solo el <strong>0,1% de la población latinoamericana</strong> posee habilidades en IA, muy por debajo del promedio global (0,32%).</p>\n\n\n\n<p><strong>Asimismo</strong>, la fuga de talento y la baja participación femenina (14,17% en Chile) agravan la brecha. <strong>Por consiguiente</strong>, programas de formación inclusiva como los de <a href=\"https://jhedai.com/contacto-inteligencia-artificial-chile/\">JhedAI</a> son fundamentales.</p>\n\n\n\n<hr />\n\n\n\n<h2>Modelos de colaboración academia-industria</h2>\n\n\n\n<p>Para Chile, la experiencia internacional sugiere tres enfoques clave:</p>\n\n\n\n<ul>\n<li><strong>Movilidad investigador-empresa.</strong></li>\n\n\n\n<li><strong>Consorcios tecnológicos sectoriales.</strong></li>\n\n\n\n<li><strong>Plataformas compartidas de cómputo.</strong></li>\n</ul>\n\n\n\n<p><strong>En particular</strong>, el acceso compartido a recursos HPC podría democratizar el uso de modelos como <strong>Gemini 2.5 Pro</strong>, acelerando innovación local.</p>\n\n\n\n<hr />\n\n\n\n<h2>Prioridades estratégicas para Chile</h2>\n\n\n\n<p>Para capitalizar el momentum de la IA, se sugieren cinco prioridades:</p>\n\n\n\n<ol>\n<li>Inversión en infraestructura HPC.</li>\n\n\n\n<li>Retención de talento especializado.</li>\n\n\n\n<li>Focalización en sectores estratégicos.</li>\n\n\n\n<li>Regulación ágil con sandbox.</li>\n\n\n\n<li>Programas de alfabetización digital.</li>\n</ol>\n\n\n\n<p><strong>Finalmente</strong>, estas acciones pueden consolidar un ecosistema chileno resiliente e inclusivo.</p>\n\n\n\n<hr />\n\n\n\n<h2>Reflexión final sobre El Modelo Gemini</h2>\n\n\n\n<p>El avance de <strong>Gemini 2.5 Pro</strong> confirma que la IA evoluciona en escalones rápidos. <strong>Como resultado</strong>, países como Chile deben diseñar estrategias que combinen investigación, formación y aplicación industrial.</p>\n\n\n\n<p>No se trata solo de seguir el ritmo global, sino de crear un camino propio, adaptado a ventajas comparativas locales. Iniciativas como <a href=\"https://jhedai.com/empresa-inteligencia-artificial-chile/\">JhedAI</a> serán clave en esta transición.</p>\n\n\n\n<p></p>","category":"Blog IA Chile","tags":["Adopción IA Chile","Agroindustria de precisión IA","Ecosistema IA Chile","Empresas IA Chile","Energías renovables IA","Estrategia IA Chile","Gemini 2.5 Pro","IA industria y academia","ILIA 2024","Innovación IA 2025","Inteligencia Artificial Google","JhedAI Capacitación","machine learning Chile","Minería inteligente IA","NLP Chile"],"published_at":"2026-04-27","updated_at":"2026-04-27 05:43:42","read_time":"3 min","featured":0,"featured_image":"https://imagedelivery.net/LUW2n1KCu7npWm7i7NCWng/b492a69c-30b8-4303-91e0-462403b27600/public","featured_image_alt":"Ecosistema de inteligencia artificial Chile ILIA 2024","meta_title":"Gemini 2.5 Pro: IA en Industria y Academia","meta_description":"Gemini 2.5 Pro une industria y academia. Google impulsa IA multimodal avanzada y Chile explora su adopción estratégica en sectores clave.","og_title":"Gemini 2.5 Pro: IA en Industria y Academia","og_description":"Gemini 2.5 Pro une industria y academia. Google impulsa IA multimodal avanzada y Chile explora su adopción estratégica en sectores clave.","og_image":"https://imagedelivery.net/LUW2n1KCu7npWm7i7NCWng/b492a69c-30b8-4303-91e0-462403b27600/public","twitter_title":null,"twitter_description":null,"canonical_url":"https://jhedai.com/blog/gemini-25-pro-industria-academia","status":"published","word_count":581,"primary_answer":"La brecha entre investigación académica y aplicación industrial en inteligencia artificial se está cerrando rápidamente. Gemini 2.5 Pro , el modelo de Google , ejemplifica esta convergencia al integrar razonamiento avanzado, procesamiento multimodal y generación autónoma de código.","faq_items":[],"key_takeaways":[],"speakable_selectors":["h1",".article-intro","h2"],"author":{"id":1,"slug":"jhedai-org","name":"JhedAi","type":"Organization","jobTitle":null,"bio":null,"avatar":"https://jhedai.com/isotipo-jhedai.png","url":"https://jhedai.com","sameAs":["https://www.linkedin.com/company/jhedai/","https://www.instagram.com/jhedai/","https://www.youtube.com/@jhedai"]}},{"id":98,"slug":"la-revolucion-silenciosa-como-el-record-de-openai-cambiara-la-inteligencia-artificial-en-chile","title":"OpenAI Logra Financiación Histórica de 40.000 Millones de Dólares para el Desarrollo de IA","excerpt":"OpenAI Logra Financiación Histórica de 40.000 Millones de Dólares para el Desarrollo de IA La carrera por dominar el futuro de la inteligencia artificial ha alcanzado un nuevo hito con OpenAI, la empresa detrás de ChatGPT, que acaba de anunciar la mayor ronda de financiación en la historia para una ","content":"<p>OpenAI Logra Financiación Histórica de 40.000 Millones de Dólares para el Desarrollo de IA</p>\n\n\n\n<div><figure><img decoding=\"async\" srcset=\"https://imagedelivery.net/LUW2n1KCu7npWm7i7NCWng/b9481448-ebac-498f-f847-e45945a64700/public ,https://imagedelivery.net/LUW2n1KCu7npWm7i7NCWng/1ffb13fc-462a-4683-728c-0725a02aa600/public 780w, https://imagedelivery.net/LUW2n1KCu7npWm7i7NCWng/1ffb13fc-462a-4683-728c-0725a02aa600/public 360w\" sizes=\"auto, (max-width: 480px) 150px\" src=\"https://imagedelivery.net/LUW2n1KCu7npWm7i7NCWng/b9481448-ebac-498f-f847-e45945a64700/public\" alt=\"\" class=\"uag-image-4102\" width=\"1024\" height=\"574\" title=\"10\" loading=\"lazy\" role=\"img\"/></figure></div>\n\n\n\n<p>La carrera por dominar el futuro de la inteligencia artificial ha alcanzado un nuevo hito con OpenAI, la empresa detrás de ChatGPT, que acaba de anunciar la mayor ronda de financiación en la historia para una empresa privada: 40.000 millones de dólares.</p>\n\n\n\n<h2>Una inversión sin precedentes</h2>\n\n\n\n<p>Con el título «Nueva financiación para desarrollar la AGI» (Inteligencia Artificial General), OpenAI ha comunicado esta histórica ronda de financiación que catapulta su valoración hasta los 300.000 millones de dólares, equiparándose a gigantes como Coca-Cola y superando a Samsung. Esta cifra solo es inferior a SpaceX (350.000 millones) en el sector de empresas privadas, y coloca a OpenAI al mismo nivel que TikTok según CB Insights.</p>\n\n\n\n<p>SoftBank emerge como el principal inversor de esta ronda, aportando 30.000 millones de dólares, lo que marca un cambio significativo en las alianzas estratégicas de OpenAI, que hasta ahora había tenido a Microsoft como su principal socio desde 2019.</p>\n\n\n\n<h2>Estructura de la financiación</h2>\n\n\n\n<p>La estructura de esta inversión es particularmente interesante:</p>\n\n\n\n<ul>\n<li>OpenAI recibirá inicialmente 10.000 millones de dólares\n<ul>\n<li>7.500 millones provendrán de SoftBank</li>\n\n\n\n<li>2.500 millones llegarán de un «sindicato de inversores»</li>\n</ul>\n</li>\n</ul>\n\n\n\n<p>Los 30.000 millones restantes se desembolsarán a finales de año, pero con una condición crucial: OpenAI debe completar su transición a una empresa con ánimo de lucro (&#8216;for-profit&#8217;). De no lograrlo, perdería una cuarta parte de la financiación total.</p>\n\n\n\n<p>Según CNBC, aproximadamente 18.000 millones de dólares de esta inversión se destinarán al proyecto Stargate.</p>\n\n\n\n<figure><img loading=\"lazy\" decoding=\"async\" width=\"1024\" height=\"683\" src=\"https://imagedelivery.net/LUW2n1KCu7npWm7i7NCWng/b2eca3a4-a2ac-42b0-b0ba-bec5b000ee00/public\" alt=\"\" style=\"width:980px;height:auto\" srcset=\"https://imagedelivery.net/LUW2n1KCu7npWm7i7NCWng/b2eca3a4-a2ac-42b0-b0ba-bec5b000ee00/public 1024w, https://imagedelivery.net/LUW2n1KCu7npWm7i7NCWng/c9b7418a-f8c4-41e5-1bc9-4e3421105d00/public 300w, https://imagedelivery.net/LUW2n1KCu7npWm7i7NCWng/f83f537e-7191-4831-60a9-b2e00a1a6600/public 768w, https://imagedelivery.net/LUW2n1KCu7npWm7i7NCWng/206b27a0-49a0-44b5-bb5c-381e4cbb1000/public 1536w\" sizes=\"auto, (max-width: 1024px) 100vw, 1024px\" /></figure>\n\n\n\n<h2>El crecimiento imparable de ChatGPT</h2>\n\n\n\n<p>El anuncio de la financiación viene acompañado de cifras impresionantes sobre el crecimiento de sus productos. ChatGPT ha alcanzado los 500 millones de usuarios semanales, un aumento significativo respecto a los 400 millones reportados hace apenas un mes.</p>\n\n\n\n<p>El reciente fenómeno de las imágenes con estilo Studio Ghibli impulsó este crecimiento de manera espectacular, añadiendo un millón de nuevos usuarios en tan solo una hora. Sam Altman, CEO de OpenAI, señaló que en los últimos cinco días habían sumado otro millón de usuarios a su plataforma.</p>\n\n\n\n<h2>La paradoja de la rentabilidad</h2>\n\n\n\n<p>A pesar de estas cifras de crecimiento y valoración extraordinarias, OpenAI reconoce que la inteligencia artificial sigue sin ser rentable. La empresa estima que no alcanzará la rentabilidad hasta 2029, aunque proyecta triplicar sus ingresos en 2025 hasta los 12.700 millones de dólares.</p>\n\n\n\n<p>Este patrón de «quemar dinero» para desarrollar tecnología de IA es común en el sector, donde los costos de entrenamiento y operación de estos sistemas son enormes, pero las expectativas sobre su potencial futuro siguen siendo extraordinariamente altas.</p>\n\n\n\n<div><figure><img decoding=\"async\" srcset=\"https://imagedelivery.net/LUW2n1KCu7npWm7i7NCWng/94e65918-6a43-462d-a98c-0a9d1a67dc00/public ,https://imagedelivery.net/LUW2n1KCu7npWm7i7NCWng/c0c306ca-421f-4cc0-b4ee-bc591ca9dd00/public 780w, https://imagedelivery.net/LUW2n1KCu7npWm7i7NCWng/c0c306ca-421f-4cc0-b4ee-bc591ca9dd00/public 360w\" sizes=\"auto, (max-width: 480px) 150px\" src=\"https://imagedelivery.net/LUW2n1KCu7npWm7i7NCWng/94e65918-6a43-462d-a98c-0a9d1a67dc00/public\" alt=\"\" class=\"uag-image-4104\" width=\"1536\" height=\"1024\" title=\"9\" loading=\"lazy\" role=\"img\"/></figure></div>\n\n\n\n<h2>La carrera hacia la AGI y el cambio de alianzas</h2>\n\n\n\n<p>El objetivo declarado de OpenAI con esta financiación es desarrollar una inteligencia artificial general (AGI) que supere a la inteligencia humana en todos los ámbitos, aunque no hay consenso sobre cuándo o si esta meta es alcanzable a corto o medio plazo.</p>\n\n\n\n<p>Mientras tanto, la estructura de alianzas de OpenAI está cambiando significativamente. Si bien Microsoft había sido su principal socio desde 2019 (con inversiones de 1.000 millones en 2019, 2.000 millones en 2021 y aproximadamente 10.000 millones en 2023), SoftBank se posiciona ahora como el nuevo gran mecenas de la empresa de Sam Altman.</p>\n\n\n\n<p>Según CNBC, Microsoft habría participado en esta ronda de financiación, pero con un papel secundario, evidenciando lo que parece ser una «cordial despedida» entre ambas empresas.</p>\n\n\n\n<hr/>\n\n\n\n<p><em>Fuente: Artículo «OpenAI acaba de levantar la mayor ronda de financiación de la historia: hay una fe ciega en la IA pese a todo»</em>e los líderes regionales en investigación y desarrollo de IA, esta mega financiación tiene varias implicaciones importantes:</p>\n\n\n\n<p></p>\n\n\n\n<p></p>\n\n\n\n<p></p>\n\n\n\n<p></p>","category":"Blog IA Chile","tags":[],"published_at":"2026-04-27","updated_at":"2026-04-27 05:43:41","read_time":"3 min","featured":0,"featured_image":"https://imagedelivery.net/LUW2n1KCu7npWm7i7NCWng/a30e913a-9a22-4435-815d-fc130b6c8600/public","featured_image_alt":null,"meta_title":"OpenAI Logra Financiación Histórica de 40.000 Millones de Dólares para el Desarrollo de IA - Consultora IA: Estrategia y Desarrollo en Chile | JhedAI","meta_description":null,"og_title":"OpenAI Logra Financiación Histórica de 40.000 Millones de Dólares para el Desarrollo de IA - Consultora IA: Estrategia y Desarrollo en Chile | JhedAI","og_description":"OpenAI Logra Financiación Histórica de 40.000 Millones de Dólares para el Desarrollo de IA La carrera por dominar el futuro de la inteligencia artificial ha alcanzado un nuevo hito con OpenAI, la empresa detrás de ChatGPT, que acaba de anunciar la mayor ronda de financiación en la historia para una empresa privada: 40.000 millones de [&hellip;]","og_image":"https://imagedelivery.net/LUW2n1KCu7npWm7i7NCWng/a30e913a-9a22-4435-815d-fc130b6c8600/public","twitter_title":null,"twitter_description":null,"canonical_url":"https://jhedai.com/blog/la-revolucion-silenciosa-como-el-record-de-openai-cambiara-la-inteligencia-artificial-en-chile","status":"published","word_count":600,"primary_answer":"OpenAI Logra Financiación Histórica de 40.000 Millones de Dólares para el Desarrollo de IA","faq_items":[],"key_takeaways":[],"speakable_selectors":["h1",".article-intro","h2"],"author":{"id":1,"slug":"jhedai-org","name":"JhedAi","type":"Organization","jobTitle":null,"bio":null,"avatar":"https://jhedai.com/isotipo-jhedai.png","url":"https://jhedai.com","sameAs":["https://www.linkedin.com/company/jhedai/","https://www.instagram.com/jhedai/","https://www.youtube.com/@jhedai"]}},{"id":97,"slug":"meta-llama-4-ia-voz-avanzada","title":"Meta Llama 4: La Nueva Generación de IA de Voz","excerpt":"Meta Llama 4 representa la nueva apuesta del gigante tecnológico para revolucionar la inteligencia artificial conversacional. Este modelo integra capacidades avanzadas de voz y texto, ofreciendo interacciones más naturales y fluidas, con un claro enfoque en aplicaciones comerciales innovadoras.","content":"<p><strong>Meta Llama 4</strong> representa la nueva apuesta del gigante tecnológico para revolucionar la inteligencia artificial conversacional. <a href=\"https://ai.meta.com/blog/llama-4-multimodal-intelligence/\">Este modelo </a>integra capacidades avanzadas de voz y texto, ofreciendo interacciones más naturales y fluidas, con un claro enfoque en aplicaciones comerciales innovadoras.</p>\n\n\n\n<p><strong>Además</strong>, se enmarca en una estrategia más amplia que busca competir con OpenAI y Google en el sector de los agentes conversacionales inteligentes.</p>\n\n\n\n<hr />\n\n\n\n<h2>Características principales de Meta Llama 4</h2>\n\n\n\n<p>Entre las innovaciones más destacadas de <strong>Meta Llama 4</strong> se encuentra su capacidad de permitir interrupciones durante la conversación. Los usuarios podrán interrumpir al modelo mientras habla y obtener respuestas inmediatas y contextualizadas.</p>\n\n\n\n<div></div>\n\n\n\n<p>Chris Cox, director de producto de Meta, señaló que el objetivo es crear un modelo versátil, capaz no solo de traducir la voz en texto, sino de interpretarla y responder con fluidez similar a una conversación humana.</p>\n\n\n\n<hr />\n\n\n\n<h2>Estrategia de Meta para la IA de voz avanzada</h2>\n\n\n\n<p>Meta no se limita a desarrollar <strong>modelos Llama</strong>, sino que planea integrar la voz en todas las interacciones cotidianas con dispositivos. <strong>En particular</strong>, la compañía invertirá miles de millones de dólares para lograr experiencias de usuario más naturales e intuitivas.</p>\n\n\n\n<p><strong>Por consiguiente</strong>, <strong>Meta Llama 4</strong> se convierte en una pieza clave para transformar la manera en que las personas interactúan con la tecnología.</p>\n\n\n\n<p> En Chile, estas tendencias refuerzan la importancia de la <strong>formación en inteligencia artificial aplicada</strong>, que ya impulsa <a href=\"https://jhedai.com/empresa-inteligencia-artificial-chile/\">JhedAI</a> con capacitaciones especializadas.</p>\n\n\n\n<hr />\n\n\n\n<h2>Competencia global en inteligencia artificial de voz</h2>\n\n\n\n<p>En un panorama competitivo, <strong>Meta Llama 4</strong> rivaliza con los modelos de OpenAI y Google. Las empresas tecnológicas buscan desarrollar agentes conversacionales capaces de realizar múltiples funciones, desde gestionar reservas hasta crear contenido multimedia.</p>\n\n\n\n<div><figure><img decoding=\"async\" src=\"https://imagedelivery.net/LUW2n1KCu7npWm7i7NCWng/84813fdb-2101-4b4e-dea1-a7a6b5eabe00/public\" alt=\"Meta Llama 4 IA de voz aplicada en pequeñas empresas\" class=\"uag-image-5322\" width=\"1024\" height=\"683\" title=\"Meta Llama 4 aplicado en negocios\" loading=\"lazy\" role=\"img\" /></figure></div>\n\n\n\n<p><strong>Asimismo</strong>, estas innovaciones están impulsando la necesidad de profesionales capacitados en machine learning y NLP, áreas centrales en las <a href=\"https://jhedai.com/consultoria-inteligencia-artificial-chile/\">capacitaciones de JhedAI</a>.</p>\n\n\n\n<hr />\n\n\n\n<h2>Nuevas oportunidades de negocio con Meta Llama 4</h2>\n\n\n\n<p>Paralelamente, Meta explora modelos de negocio basados en suscripciones premium. La visión es ofrecer agentes inteligentes que representen a las empresas de manera autónoma, respondiendo en tiempo real a las necesidades de los clientes.</p>\n\n\n\n<div><figure><img decoding=\"async\" src=\"https://imagedelivery.net/LUW2n1KCu7npWm7i7NCWng/4ff2aa61-2305-472c-9625-b4885869f600/public\" alt=\"Estrategia global de Meta IA de voz con Llama 4\" class=\"uag-image-5324\" width=\"1024\" height=\"683\" title=\"Estrategia global IA de voz Meta\" loading=\"lazy\" role=\"img\" /></figure></div>\n\n\n\n<p><strong>Finalmente</strong>, esta apuesta se alinea con una inversión proyectada de <strong>65 mil millones de dólares para 2025</strong>, consolidando a Meta como uno de los líderes en IA de voz.</p>\n\n\n\n<p>Para empresas chilenas y latinoamericanas, estos cambios anticipan nuevas oportunidades de automatización. Aquí <a href=\"https://jhedai.com/category/blog-inteligencia-artificial-chile/\">JhedAI</a> puede ser un aliado estratégico en el desarrollo de equipos preparados.</p>\n\n\n\n<hr />\n\n\n\n<h2>Conclusión: El futuro de Meta Llama 4 en IA de voz</h2>\n\n\n\n<p>El camino hacia la <strong>IA de voz avanzada</strong> no es solo una evolución tecnológica, sino parte de la estrategia integral de Meta.</p>\n\n\n\n<p><strong>Como resultado</strong>, <strong>Meta Llama 4</strong> se posiciona como un modelo de referencia global, impulsando interacciones más humanas y abriendo oportunidades comerciales sin precedentes.</p>\n\n\n\n<p>En paralelo, iniciativas de formación como las de <a href=\"https://jhedai.com/contacto-inteligencia-artificial-chile/\">JhedAI</a> garantizan que las empresas en Chile y Latinoamérica puedan prepararse para integrar estas tecnologías con éxito.</p>\n\n\n\n<p></p>","category":"Aspectos Técnicos IA Chile","tags":["Automatización empresas IA","Competencia OpenAI Google","Empresas IA Chile","Estrategia Meta IA","Futuro IA voz","IA de voz avanzada","Innovación tecnológica 2025","Inteligencia Artificial Meta","Interacciones naturales IA","JhedAI Capacitación","machine learning Chile","Meta inteligencia artificial","Meta Llama 4","Modelos Llama","NLP Chile"],"published_at":"2026-04-27","updated_at":"2026-04-27 07:59:29","read_time":"2 min","featured":0,"featured_image":"https://imagedelivery.net/LUW2n1KCu7npWm7i7NCWng/bede77b6-d445-4f2e-1f7d-cbbba22f8600/public","featured_image_alt":"Usuarios interactúan con Meta Llama 4 IA de voz avanzada","meta_title":"Meta Llama 4: IA de Voz Avanzada y Natural","meta_description":"Meta Llama 4 revoluciona la IA de voz con interacciones naturales. Modelo avanzado para negocios y usuarios, rival de OpenAI y Google.","og_title":"Meta Llama 4: IA de Voz Avanzada y Natural","og_description":"Meta Llama 4 revoluciona la IA de voz con interacciones naturales. Modelo avanzado para negocios y usuarios, rival de OpenAI y Google.","og_image":"https://imagedelivery.net/LUW2n1KCu7npWm7i7NCWng/a1cbe9e1-7043-4a42-74fc-33e24cd5fc00/public","twitter_title":null,"twitter_description":null,"canonical_url":"https://jhedai.com/blog/meta-llama-4-ia-voz-avanzada","status":"published","word_count":481,"primary_answer":"Meta Llama 4 representa la nueva apuesta del gigante tecnológico para revolucionar la inteligencia artificial conversacional. Este modelo integra capacidades avanzadas de voz y texto, ofreciendo interacciones más naturales y fluidas, con un claro enfoque en aplicaciones comerciales innovadoras.","faq_items":[],"key_takeaways":[],"speakable_selectors":["h1",".article-intro","h2"],"author":{"id":1,"slug":"jhedai-org","name":"JhedAi","type":"Organization","jobTitle":null,"bio":null,"avatar":"https://jhedai.com/isotipo-jhedai.png","url":"https://jhedai.com","sameAs":["https://www.linkedin.com/company/jhedai/","https://www.instagram.com/jhedai/","https://www.youtube.com/@jhedai"]}}],"page":1,"totalPages":33,"total":99}}