{"data":{"data":[{"id":99,"slug":"gemini-25-pro-industria-academia","title":"Gemini 2.5 Pro: Horizontes Convergentes","excerpt":"La brecha entre investigación académica y aplicación industrial en inteligencia artificial se está cerrando rápidamente. Gemini 2.5 Pro, el modelo de Google, ejemplifica esta convergencia al integrar razonamiento avanzado, procesamiento multimodal y generación autónoma de código.","content":"<p>La brecha entre investigación académica y aplicación industrial en inteligencia artificial se está cerrando rápidamente. <strong>Gemini 2.5 Pro</strong>, el <a href=\"https://deepmind.google/models/gemini/pro/\">modelo de Google</a>, ejemplifica esta convergencia al integrar razonamiento avanzado, procesamiento multimodal y generación autónoma de código.</p>\n\n\n\n<div><figure><img decoding=\"async\" src=\"https://imagedelivery.net/LUW2n1KCu7npWm7i7NCWng/04d5f320-705e-4a36-bcd8-cdd88434d200/public\" alt=\"Sectores estratégicos de IA en Chile con Gemini 2.5 Pro\" class=\"uag-image-5330\" width=\"1024\" height=\"683\" title=\"Sectores estratégicos IA Chile con Gemini 2.5 Pro\" loading=\"lazy\" role=\"img\" /></figure></div>\n\n\n\n<p><strong>Por consiguiente</strong>, su impacto va más allá de la innovación tecnológica: abre interrogantes sobre cómo economías emergentes, como Chile, pueden posicionarse en este nuevo ecosistema.</p>\n\n\n\n<hr />\n\n\n\n<h2>El panorama global de Gemini 2.5 Pro</h2>\n\n\n\n<p>El desarrollo de <strong>Gemini 2.5 Pro</strong> refleja la aceleración sin precedentes de la inteligencia artificial. Según el <em>Stanford AI Index 2023</em>, la inversión global en IA superó los <strong>$120 mil millones</strong> en 2022.</p>\n\n\n\n<p><strong>Además</strong>, la democratización del acceso a estos modelos genera oportunidades para países emergentes. Como señala François Chollet de Google: “la eficiencia en el uso de recursos es más crucial que la escala de cómputo”.</p>\n\n\n\n<p>En Chile, esta visión refuerza el valor de la <strong>formación en IA aplicada</strong>, que impulsa <a href=\"https://jhedai.com/empresa-inteligencia-artificial-chile/\">JhedAI</a>.</p>\n\n\n\n<hr />\n\n\n\n<h2>Academia e industria en la era de Gemini 2.5 Pro</h2>\n\n\n\n<p>La <strong>adopción de Gemini 2.5 Pro</strong> refleja cómo corporaciones como Google DeepMind, OpenAI y Microsoft Research lideran la investigación fundamental, integrándola directamente a la industria.</p>\n\n\n\n<p><strong>En particular</strong>, esto desafía a las universidades tradicionales, que deben competir por talento, pero también abre espacios de colaboración en ética, sesgos y aplicaciones sociales.</p>\n\n\n\n<p>En Chile, estas sinergias pueden reforzarse mediante programas de <a href=\"https://jhedai.com/consultoria-inteligencia-artificial-chile/\">colaboración academia-industria</a>.</p>\n\n\n\n<hr />\n\n\n\n<h2>El contexto latinoamericano: datos y desafíos</h2>\n\n\n\n<p>Según el <strong>Índice Latinoamericano de IA (ILIA) 2024</strong>, Chile lidera la región con <strong>76,85/100</strong> puntos en investigación y publicaciones científicas.</p>\n\n\n\n<p><strong>Sin embargo</strong>, enfrenta desafíos:</p>\n\n\n\n<ul>\n<li>Inversión en I+D menor al 0,5% del PIB.</li>\n\n\n\n<li>Limitada infraestructura HPC.</li>\n\n\n\n<li>Escasez de talento especializado.</li>\n</ul>\n\n\n\n<p><strong>Como resultado</strong>, es crucial que Chile combine su capacidad académica con ecosistemas que impulsen innovación práctica.</p>\n\n\n\n<div><figure><img decoding=\"async\" src=\"https://imagedelivery.net/LUW2n1KCu7npWm7i7NCWng/946064c0-0e83-4bfb-b4d0-e332e47b6c00/public\" alt=\"Ecosistema de inteligencia artificial Chile ILIA 2024\" class=\"uag-image-5332\" width=\"1024\" height=\"683\" title=\"Ecosistema IA Chile ILIA 2024\" loading=\"lazy\" role=\"img\" /></figure></div>\n\n\n\n<hr />\n\n\n\n<h2>Gemini 2.5 Pro y sectores estratégicos para Chile</h2>\n\n\n\n<p>La <strong>adopción de Gemini 2.5 Pro en Chile</strong> puede potenciar sectores donde ya existen ventajas comparativas:</p>\n\n\n\n<ul>\n<li><strong>Astronomía computacional:</strong> análisis de datos astronómicos.</li>\n\n\n\n<li><strong>Minería inteligente:</strong> optimización de procesos y reducción de impacto ambiental.</li>\n\n\n\n<li><strong>Energías renovables:</strong> gestión predictiva de consumo y almacenamiento solar.</li>\n\n\n\n<li><strong>Agroindustria de precisión:</strong> detección temprana de plagas y gestión hídrica.</li>\n</ul>\n\n\n\n<p>Estas áreas se conectan directamente con las <a href=\"https://jhedai.com/category/blog-inteligencia-artificial-chile/\">capacitaciones en IA de JhedAI</a>.</p>\n\n\n\n<div><figure><img decoding=\"async\" src=\"https://imagedelivery.net/LUW2n1KCu7npWm7i7NCWng/110c95d3-082e-4199-18d8-ee4c8e7fec00/public\" alt=\"Sectores estratégicos de IA en Chile con Gemini 2.5 Pro\" class=\"uag-image-5333\" width=\"1024\" height=\"683\" title=\"Sectores estratégicos IA Chile con Gemini 2.5 Pro\" loading=\"lazy\" role=\"img\" /></figure></div>\n\n\n\n<hr />\n\n\n\n<h2>El desafío del talento especializado</h2>\n\n\n\n<p>El <strong>ILIA 2024</strong> muestra que solo el <strong>0,1% de la población latinoamericana</strong> posee habilidades en IA, muy por debajo del promedio global (0,32%).</p>\n\n\n\n<p><strong>Asimismo</strong>, la fuga de talento y la baja participación femenina (14,17% en Chile) agravan la brecha. <strong>Por consiguiente</strong>, programas de formación inclusiva como los de <a href=\"https://jhedai.com/contacto-inteligencia-artificial-chile/\">JhedAI</a> son fundamentales.</p>\n\n\n\n<hr />\n\n\n\n<h2>Modelos de colaboración academia-industria</h2>\n\n\n\n<p>Para Chile, la experiencia internacional sugiere tres enfoques clave:</p>\n\n\n\n<ul>\n<li><strong>Movilidad investigador-empresa.</strong></li>\n\n\n\n<li><strong>Consorcios tecnológicos sectoriales.</strong></li>\n\n\n\n<li><strong>Plataformas compartidas de cómputo.</strong></li>\n</ul>\n\n\n\n<p><strong>En particular</strong>, el acceso compartido a recursos HPC podría democratizar el uso de modelos como <strong>Gemini 2.5 Pro</strong>, acelerando innovación local.</p>\n\n\n\n<hr />\n\n\n\n<h2>Prioridades estratégicas para Chile</h2>\n\n\n\n<p>Para capitalizar el momentum de la IA, se sugieren cinco prioridades:</p>\n\n\n\n<ol>\n<li>Inversión en infraestructura HPC.</li>\n\n\n\n<li>Retención de talento especializado.</li>\n\n\n\n<li>Focalización en sectores estratégicos.</li>\n\n\n\n<li>Regulación ágil con sandbox.</li>\n\n\n\n<li>Programas de alfabetización digital.</li>\n</ol>\n\n\n\n<p><strong>Finalmente</strong>, estas acciones pueden consolidar un ecosistema chileno resiliente e inclusivo.</p>\n\n\n\n<hr />\n\n\n\n<h2>Reflexión final sobre El Modelo Gemini</h2>\n\n\n\n<p>El avance de <strong>Gemini 2.5 Pro</strong> confirma que la IA evoluciona en escalones rápidos. <strong>Como resultado</strong>, países como Chile deben diseñar estrategias que combinen investigación, formación y aplicación industrial.</p>\n\n\n\n<p>No se trata solo de seguir el ritmo global, sino de crear un camino propio, adaptado a ventajas comparativas locales. Iniciativas como <a href=\"https://jhedai.com/empresa-inteligencia-artificial-chile/\">JhedAI</a> serán clave en esta transición.</p>\n\n\n\n<p></p>","category":"Blog IA Chile","tags":["Adopción IA Chile","Agroindustria de precisión IA","Ecosistema IA Chile","Empresas IA Chile","Energías renovables IA","Estrategia IA Chile","Gemini 2.5 Pro","IA industria y academia","ILIA 2024","Innovación IA 2025","Inteligencia Artificial Google","JhedAI Capacitación","machine learning Chile","Minería inteligente IA","NLP Chile"],"published_at":"2026-04-27","updated_at":"2026-04-27 05:43:42","read_time":"3 min","featured":0,"featured_image":"https://imagedelivery.net/LUW2n1KCu7npWm7i7NCWng/b492a69c-30b8-4303-91e0-462403b27600/public","featured_image_alt":"Ecosistema de inteligencia artificial Chile ILIA 2024","meta_title":"Gemini 2.5 Pro: IA en Industria y Academia","meta_description":"Gemini 2.5 Pro une industria y academia. Google impulsa IA multimodal avanzada y Chile explora su adopción estratégica en sectores clave.","og_title":"Gemini 2.5 Pro: IA en Industria y Academia","og_description":"Gemini 2.5 Pro une industria y academia. Google impulsa IA multimodal avanzada y Chile explora su adopción estratégica en sectores clave.","og_image":"https://imagedelivery.net/LUW2n1KCu7npWm7i7NCWng/b492a69c-30b8-4303-91e0-462403b27600/public","twitter_title":null,"twitter_description":null,"canonical_url":"https://jhedai.com/blog/gemini-25-pro-industria-academia","status":"published","word_count":581,"primary_answer":"La brecha entre investigación académica y aplicación industrial en inteligencia artificial se está cerrando rápidamente. Gemini 2.5 Pro , el modelo de Google , ejemplifica esta convergencia al integrar razonamiento avanzado, procesamiento multimodal y generación autónoma de código.","faq_items":[],"key_takeaways":[],"speakable_selectors":["h1",".article-intro","h2"],"author":{"id":1,"slug":"jhedai-org","name":"JhedAi","type":"Organization","jobTitle":null,"bio":null,"avatar":"https://jhedai.com/isotipo-jhedai.png","url":"https://jhedai.com","sameAs":["https://www.linkedin.com/company/jhedai/","https://www.instagram.com/jhedai/","https://www.youtube.com/@jhedai"]}}],"page":1,"totalPages":99,"total":99}}